<?xml version="1.0" encoding="UTF-8" standalone="no"?><svg xmlns="http://www.w3.org/2000/svg" xmlns:xlink="http://www.w3.org/1999/xlink" contentScriptType="application/ecmascript" contentStyleType="text/css" height="226px" preserveAspectRatio="none" style="width:138px;height:226px;" version="1.1" viewBox="0 0 138 226" width="138px" zoomAndPan="magnify"><defs><filter height="300%" id="f19i4wttg1mtke" width="300%" x="-1" y="-1"><feGaussianBlur result="blurOut" stdDeviation="2.0"/><feColorMatrix in="blurOut" result="blurOut2" type="matrix" values="0 0 0 0 0 0 0 0 0 0 0 0 0 0 0 0 0 0 .4 0"/><feOffset dx="4.0" dy="4.0" in="blurOut2" result="blurOut3"/><feBlend in="SourceGraphic" in2="blurOut3" mode="normal"/></filter></defs><g><!--class Vector--><rect fill="#FEFECE" filter="url(#f19i4wttg1mtke)" height="73.9102" id="Vector" style="stroke: #A80036; stroke-width: 1.5;" width="121" x="6" y="8"/><ellipse cx="44.4" cy="24" fill="#ADD1B2" rx="11" ry="11" style="stroke: #A80036; stroke-width: 1.0;"/><path d="M47.3731,29.6431 Q46.7921,29.9419 46.1529,30.0913 Q45.5138,30.2407 44.8082,30.2407 Q42.3014,30.2407 40.9815,28.5889 Q39.6617,26.937 39.6617,23.8159 Q39.6617,20.6865 40.9815,19.0347 Q42.3014,17.3828 44.8082,17.3828 Q45.5138,17.3828 46.1612,17.5322 Q46.8087,17.6816 47.3731,17.9805 L47.3731,20.7031 Q46.7423,20.1221 46.1488,19.8523 Q45.5553,19.5825 44.9244,19.5825 Q43.5797,19.5825 42.8949,20.6492 Q42.2101,21.7158 42.2101,23.8159 Q42.2101,25.9077 42.8949,26.9744 Q43.5797,28.041 44.9244,28.041 Q45.5553,28.041 46.1488,27.7712 Q46.7423,27.5015 47.3731,26.9204 Z "/><text fill="#000000" font-family="sans-serif" font-size="12" lengthAdjust="spacingAndGlyphs" textLength="37" x="63.6" y="28.5352">Vector</text><line style="stroke: #A80036; stroke-width: 1.5;" x1="7" x2="126" y1="40" y2="40"/><line style="stroke: #A80036; stroke-width: 1.5;" x1="7" x2="126" y1="48" y2="48"/><ellipse cx="17" cy="59.9775" fill="#84BE84" rx="3" ry="3" style="stroke: #038048; stroke-width: 1.0;"/><text fill="#000000" font-family="sans-serif" font-size="11" lengthAdjust="spacingAndGlyphs" textLength="95" x="26" y="62.6348">void push_back ()</text><ellipse cx="17" cy="72.9326" fill="#84BE84" rx="3" ry="3" style="stroke: #038048; stroke-width: 1.0;"/><text fill="#000000" font-family="sans-serif" font-size="11" lengthAdjust="spacingAndGlyphs" textLength="89" x="26" y="75.5898">void pop_back ()</text><!--class Stack--><rect fill="#FEFECE" filter="url(#f19i4wttg1mtke)" height="73.9102" id="Stack" style="stroke: #A80036; stroke-width: 1.5;" width="90" x="21.5" y="142"/><ellipse cx="49.1" cy="158" fill="#ADD1B2" rx="11" ry="11" style="stroke: #A80036; stroke-width: 1.0;"/><path d="M52.0731,163.6431 Q51.4921,163.9419 50.8529,164.0913 Q50.2138,164.2407 49.5082,164.2407 Q47.0014,164.2407 45.6815,162.5889 Q44.3617,160.937 44.3617,157.8159 Q44.3617,154.6865 45.6815,153.0347 Q47.0014,151.3828 49.5082,151.3828 Q50.2138,151.3828 50.8612,151.5322 Q51.5087,151.6816 52.0731,151.9805 L52.0731,154.7031 Q51.4423,154.1221 50.8488,153.8523 Q50.2553,153.5825 49.6244,153.5825 Q48.2797,153.5825 47.5949,154.6492 Q46.9101,155.7158 46.9101,157.8159 Q46.9101,159.9077 47.5949,160.9744 Q48.2797,162.041 49.6244,162.041 Q50.2553,162.041 50.8488,161.7712 Q51.4423,161.5015 52.0731,160.9204 Z "/><text fill="#000000" font-family="sans-serif" font-size="12" lengthAdjust="spacingAndGlyphs" textLength="30" x="65.9" y="162.5352">Stack</text><line style="stroke: #A80036; stroke-width: 1.5;" x1="22.5" x2="110.5" y1="174" y2="174"/><line style="stroke: #A80036; stroke-width: 1.5;" x1="22.5" x2="110.5" y1="182" y2="182"/><ellipse cx="32.5" cy="193.9775" fill="#84BE84" rx="3" ry="3" style="stroke: #038048; stroke-width: 1.0;"/><text fill="#000000" font-family="sans-serif" font-size="11" lengthAdjust="spacingAndGlyphs" textLength="64" x="41.5" y="196.6348">void push ()</text><ellipse cx="32.5" cy="206.9326" fill="#84BE84" rx="3" ry="3" style="stroke: #038048; stroke-width: 1.0;"/><text fill="#000000" font-family="sans-serif" font-size="11" lengthAdjust="spacingAndGlyphs" textLength="58" x="41.5" y="209.5898">void pop ()</text><!--link Vector to Stack--><path d="M66.5,102.5351 C66.5,115.8601 66.5,129.6949 66.5,141.8737 " fill="none" id="Vector-Stack" style="stroke: #A80036; stroke-width: 1.0;"/><polygon fill="none" points="59.5001,102.3265,66.5,82.3265,73.5001,102.3264,59.5001,102.3265" style="stroke: #A80036; stroke-width: 1.0;"/><!--
@startuml
Vector <|- - Stack

class Vector {
    + void push_back ()
    + void pop_back ()
    }

class Stack {
    + void push ()
    + void pop ()
    }

@enduml

PlantUML version 1.2018.12(Sun Oct 21 05:15:15 CDT 2018)
(GPL source distribution)
Java Runtime: Java(TM) SE Runtime Environment
JVM: Java HotSpot(TM) 64-Bit Server VM
Java Version: 10.0.1+10
Operating System: Mac OS X
OS Version: 10.13.6
Default Encoding: UTF-8
Language: en
Country: US
--></g></svg>